<?xml version="1.0" encoding="UTF-8" standalone="no"?>
<!-- Created with Inkscape (http://www.inkscape.org/) -->

<svg
   xmlns:dc="http://purl.org/dc/elements/1.1/"
   xmlns:cc="http://creativecommons.org/ns#"
   xmlns:rdf="http://www.w3.org/1999/02/22-rdf-syntax-ns#"
   xmlns:svg="http://www.w3.org/2000/svg"
   xmlns="http://www.w3.org/2000/svg"
   xmlns:sodipodi="http://sodipodi.sourceforge.net/DTD/sodipodi-0.dtd"
   xmlns:inkscape="http://www.inkscape.org/namespaces/inkscape"
   width="210mm"
   height="297mm"
   viewBox="0 0 210 297"
   version="1.1"
   id="svg8"
   inkscape:version="0.92.3 (2405546, 2018-03-11)"
   sodipodi:docname="derpdrawing1.svg">
  <defs
     id="defs2" />
  <sodipodi:namedview
     id="base"
     pagecolor="#ffffff"
     bordercolor="#666666"
     borderopacity="1.0"
     inkscape:pageopacity="0.0"
     inkscape:pageshadow="2"
     inkscape:zoom="0.35"
     inkscape:cx="400"
     inkscape:cy="560"
     inkscape:document-units="mm"
     inkscape:current-layer="layer1"
     showgrid="false"
     inkscape:window-width="1366"
     inkscape:window-height="705"
     inkscape:window-x="-8"
     inkscape:window-y="-8"
     inkscape:window-maximized="1" />
  <metadata
     id="metadata5">
    <rdf:RDF>
      <cc:Work
         rdf:about="">
        <dc:format>image/svg+xml</dc:format>
        <dc:type
           rdf:resource="http://purl.org/dc/dcmitype/StillImage" />
        <dc:title></dc:title>
      </cc:Work>
    </rdf:RDF>
  </metadata>
  <g
     inkscape:label="Layer 1"
     inkscape:groupmode="layer"
     id="layer1">
    <path
       style="fill:none;stroke:#000000;stroke-width:0.26458332px;stroke-linecap:butt;stroke-linejoin:miter;stroke-opacity:1"
       d="m 34.773809,79.285713 c 2.329248,0.557506 4.505018,1.611127 6.803572,2.267857 0.998982,0.285425 2.051003,0.39115 3.023809,0.755952 1.055156,0.395684 2.015874,1.007938 3.023809,1.511906 3.02381,1.511906 6.047619,3.023809 9.071428,4.535715 1.511906,0.755951 3.023811,1.511903 4.535715,2.267857 1.511906,0.755952 3.109621,1.360342 4.535715,2.267855 1.361236,0.866243 2.457942,2.098537 3.77976,3.023812 4.613995,3.229795 2.815381,1.117261 6.803573,4.535713 0.811705,0.69575 1.446567,1.58345 2.267857,2.26786 0.697961,0.58163 1.700295,0.80245 2.267858,1.5119 0.497784,0.62223 0.34598,1.58457 0.755951,2.26786 0.366692,0.61115 1.084274,0.94173 1.511904,1.5119 0.338074,0.45077 0.41788,1.06115 0.755954,1.51191 0.242816,0.32375 2.79464,2.56547 3.023809,3.02381 0.302382,0.60476 -0.302382,1.66309 0,2.26786 0.159369,0.31873 0.64326,0.41788 0.755952,0.75595 0.11535,0.34605 0,3.35782 0,3.77976 0,2.51984 0,5.03968 0,7.55952 0,6.9744 -0.244459,-0.95527 0.755951,6.04762 0.106911,0.74836 0,1.51191 0,2.26786 0,2.26786 0,4.53571 0,6.80357 0,1.25992 0,2.51984 0,3.77976 0,0.50397 0.122233,1.02299 0,1.51191 -0.193262,0.77305 -0.53704,1.50167 -0.755951,2.26785 -0.285422,0.99899 -0.47053,2.02483 -0.755952,3.02381 -0.437819,1.53237 -1.249905,2.96372 -1.511906,4.53572 -0.124277,0.74566 0,1.5119 0,2.26786 0,1.00793 0,2.01587 0,3.02381 0,1.00793 0,2.01587 0,3.0238 0,1.00794 0.125021,2.02366 0,3.02381 -0.128865,1.03094 -0.627083,1.99288 -0.755951,3.02381 -0.218784,1.75027 0,3.52778 0,5.29167 0,0.18756 -0.04146,2.96162 0,3.02381 0.395345,0.59302 0.900752,1.14521 1.511905,1.5119 0.742789,0.44568 4.768369,1.39562 5.291667,1.51191 2.508549,0.55745 5.050973,0.95445 7.559522,1.5119 1.01422,0.22538 2.00959,0.53057 3.02381,0.75595 3.28442,0.72988 6.58693,1.34202 9.82738,2.26786 3.48252,0.99501 0.99904,0.75595 4.53572,0.75595 0.25198,0 0.50396,0 0.75595,0 0.25198,0 0.53057,0.1127 0.75595,0 0.31874,-0.15936 0.50397,-0.50396 0.75595,-0.75595 0.25199,-0.25198 0.50397,-0.50397 0.75595,-0.75595 0.50397,-0.50397 1.11656,-0.91889 1.51191,-1.51191 0.54837,-0.82255 1.37531,-2.96019 1.5119,-3.77976 0.12428,-0.74566 0,-1.5119 0,-2.26785 0.25199,-1.00794 0.50397,-2.01588 0.75596,-3.02381 0.8089,-3.23562 0.8721,-3.28464 1.5119,-6.80358 0.27419,-1.50803 0.62866,-3.00824 0.75595,-4.53571 0.12556,-1.50668 -0.12555,-3.02903 0,-4.53571 0.12729,-1.52747 0.50397,-3.02381 0.75596,-4.53572 0.25198,-1.76389 0.61929,-3.51512 0.75595,-5.29166 0.11596,-1.50745 -0.12556,-3.02904 0,-4.53572 0.12729,-1.52746 0.50397,-3.02381 0.75595,-4.53571 0.25198,-1.51191 0.50397,-3.02381 0.75595,-4.53572 0.25199,-1.5119 0.38421,-3.04872 0.75596,-4.53571 0.38652,-1.5461 1.12537,-2.98961 1.5119,-4.53571 0.37175,-1.487 0.50397,-3.02382 0.75595,-4.53572 2.22758,-13.36544 -0.6012,3.30659 1.51191,-8.31547 0.005,-0.0255 1.51074,-9.06679 1.5119,-9.07143 0.38653,-1.54611 1.09258,-2.99819 1.51191,-4.53572 0.33807,-1.239596 0.41788,-2.540161 0.75595,-3.77976 0.41932,-1.537531 1.09258,-2.998182 1.5119,-4.535715 0.51962,-2.598095 0.80019,-4.312552 1.51191,-6.80357 0.21891,-0.766186 0.59968,-1.486487 0.75595,-2.267857 0.0988,-0.494181 -0.15937,-1.033799 0,-1.511906 0.11269,-0.338072 0.59659,-0.437214 0.75595,-0.755952 0.37077,-0.74154 -0.34617,-1.102122 -0.75595,-1.511903 -0.59046,-0.590465 -1.61555,-1.832983 -2.26786,-2.267858 -0.46882,-0.312549 -1.00793,-0.50397 -1.5119,-0.755954 -1.00794,-0.503968 -1.9775,-1.09338 -3.02381,-1.511903 -2.21139,-0.884555 -4.61483,-1.329825 -6.80357,-2.267858 -1.03579,-0.443909 -1.98802,-1.067993 -3.02381,-1.511905 -0.73241,-0.313891 -1.52801,-0.46001 -2.26786,-0.755952 -0.52315,-0.209262 -0.98875,-0.54669 -1.5119,-0.755952 -1.4797,-0.59188 -3.05602,-0.920025 -4.53572,-1.511905 -0.52315,-0.209262 -0.97736,-0.577774 -1.5119,-0.755952 -0.23906,-0.07968 -0.57778,0.178178 -0.75595,0 -0.17818,-0.178181 0.17817,-0.577773 0,-0.755952 -0.17818,-0.178181 -0.53058,0.112689 -0.75596,0 -0.31873,-0.159369 -0.45944,-0.558281 -0.75595,-0.755954 -0.46882,-0.312547 -1.04308,-0.443405 -1.5119,-0.755952 -0.29651,-0.197672 -0.43722,-0.596582 -0.75596,-0.755951 -0.22538,-0.112692 -0.53057,0.112691 -0.75595,0 -0.90714,-0.453573 -1.36071,-1.814285 -2.26786,-2.267858 -1.04272,-0.521364 -0.67617,0.915501 -1.5119,-0.755951 -0.11269,-0.225383 -0.25198,-0.755955 0,-0.755955 0.25198,0 0,1.007939 0,0.755955 0,-2.419446 -0.40924,-3.370525 1.5119,-5.291667 0.50397,-0.50397 1.08428,-0.941731 1.51191,-1.511906 0.33807,-0.450762 0.35753,-1.113483 0.75595,-1.511903 0.39842,-0.398423 1.17383,-0.305192 1.51191,-0.755954 0.4781,-0.637474 0.27784,-1.630381 0.75595,-2.267858 0.33807,-0.450762 1.04308,-0.443404 1.5119,-0.755951 0.68816,-0.458769 1.59783,-1.932842 2.26786,-2.267858 0.45076,-0.22538 1.0338,0.159369 1.51191,0 1.58128,-0.527092 2.98696,-1.648357 4.53571,-2.267857 1.4797,-0.591881 3.05601,-0.920023 4.53571,-1.511904 0.52316,-0.209261 0.98876,-0.546692 1.51191,-0.755951 0.73985,-0.295942 1.528,-0.460013 2.26786,-0.755954 1.0463,-0.418524 1.93054,-1.238589 3.02381,-1.511904 0.48892,-0.122232 1.02298,0.12223 1.5119,0 3.47457,-0.868643 0.17151,-0.755954 2.26786,-0.755954 0.25198,0 0.53057,-0.112689 0.75595,0 3.14609,1.573048 -0.80814,-0.05219 0.75595,1.511906 0.17818,0.178178 0.53057,-0.112691 0.75595,0 0.40375,0.201872 1.86988,1.869874 2.26786,2.267857 0.39798,0.397981 2.06599,1.864114 2.26786,2.267858 0.22538,0.450763 -0.22538,1.06114 0,1.511903 0.15937,0.318738 0.50397,0.503968 0.75595,0.755954 0.25198,0.251984 0.50397,0.503968 0.75595,0.755952 1.73328,1.733275 -0.31873,-0.478107 1.51191,2.267857 0.19767,0.296508 0.59658,0.437214 0.75595,0.755952 0.71272,1.425437 0.79919,3.110278 1.5119,4.535715 0.40632,0.812623 1.1056,1.455232 1.51191,2.267858 0.35636,0.712718 0.46001,1.528005 0.75595,2.267854 0.41853,1.046308 1.09338,1.977504 1.51191,3.023812 0.61467,1.536687 0.62548,2.450129 1.5119,3.779761 0.45877,0.688155 1.93284,1.597827 2.26786,2.267857 0.22538,0.450763 -0.15937,1.033799 0,1.511904 1.82522,5.475679 -0.21795,-1.19184 1.5119,2.267857 0.13777,0.275527 0,3.344185 0,3.779763 0,1.25992 0.20713,2.536984 0,3.779761 -0.131,0.786003 -0.62495,1.481855 -0.75595,2.267858 -0.12428,0.745667 0,1.511906 0,2.267857 0,0.755952 0,1.511903 0,2.267858 0,8.567459 0,17.134917 0,25.702377 0,2.77183 0,5.54365 0,8.31548 0,1.76389 0.21878,3.5414 0,5.29167 -0.12886,1.03093 -0.64122,1.9912 -0.75595,3.02381 -0.13914,1.25221 0,2.51984 0,3.77976 0,3.27579 0,6.55158 0,9.82738 0,4.53571 0,9.07143 0,13.60714 0,1.25992 0,2.51984 0,3.77976 0,0.75596 -0.12428,1.52219 0,2.26786 0.262,1.572 1.2499,2.96371 1.5119,4.53571 0.24856,1.49134 -0.24855,3.04438 0,4.53572 0.20832,1.24992 1.51103,4.15641 2.26786,5.29166 0.76806,1.15209 1.2074,0.44083 1.51191,2.26786 0.3314,1.98845 -0.25004,4.04732 0,6.04762 0.12886,1.03093 0.62708,1.99288 0.75595,3.02381 0.12502,1.00015 -0.14255,2.026 0,3.02381 0.11269,0.78883 0.64326,1.47902 0.75595,2.26786 0.19429,1.36 0,4.42693 0,6.04761 0,0.64003 0.13547,2.61741 0,3.02381 -0.35636,1.06908 -1.06799,1.98802 -1.5119,3.02382 -0.3139,0.73241 -0.31395,1.60484 -0.75596,2.26785 -0.59301,0.88953 -1.64647,1.39791 -2.26785,2.26786 -0.65501,0.917 -0.91465,2.06819 -1.51191,3.02381 -0.66775,1.06841 -1.54534,1.99164 -2.26786,3.02381 -1.04202,1.48861 -1.8015,3.19118 -3.02381,4.53571 -1.32385,1.45625 -3.08495,2.4499 -4.53571,3.77976 -11.85468,10.8668 2.56267,-1.3796 -9.07143,8.31548 -13.55711,11.29759 3.07359,-3.07359 -7.55952,7.55952 -1.14091,1.14091 -2.50615,2.03323 -3.77976,3.02381 -1.98905,1.54704 -3.99714,3.07109 -6.04762,4.53572 -0.75476,0.53911 -2.68437,1.90272 -3.77976,2.26785 -0.23906,0.0797 -0.57778,-0.17818 -0.75596,0 -0.17818,0.17818 -0.17818,0.57778 0,0.75596 0.39842,0.39842 1.76389,0.25198 1.51191,0.75595 -0.25199,0.50397 -1.91033,-1.15438 -1.51191,-0.75595 3.79256,3.79256 4.87318,3.75029 9.07143,6.80357 2.60977,1.89801 4.91589,4.19707 7.55952,6.04762 1.20371,0.84259 2.55723,1.45283 3.77977,2.26785 10.9676,7.31173 -2.79238,-1.01822 5.29166,3.02382 0.42004,0.21 1.26816,1.51191 1.51191,1.51191 0.25198,0 0,-0.50398 0,-0.75597 0,-1.25992 0.24709,-2.54431 0,-3.77976 -0.11051,-0.5525 -0.64545,-0.95938 -0.75595,-1.51191 -0.19768,-0.98835 0,-2.01586 0,-3.0238 0,-0.17964 -0.0847,-2.85438 0,-3.02381 0.15937,-0.31874 0.50396,-0.50397 0.75595,-0.75595 0.25198,-0.25199 0.50397,-0.50397 0.75595,-0.75595 0.59047,-0.59047 1.61555,-1.83299 2.26786,-2.26786 1.98159,-1.32106 1.32106,-0.28256 3.77976,-1.51191 0.81262,-0.40631 1.43277,-1.15401 2.26786,-1.5119 0.95495,-0.40927 2.02482,-0.47053 3.02381,-0.75595 0.76618,-0.21891 1.47902,-0.64327 2.26785,-0.75596 0.99781,-0.14254 2.01588,0 3.02381,0 0.75596,0 1.51191,0 2.26786,0 0.75595,0 1.53448,-0.18334 2.26786,0 0.34572,0.0864 0.43721,0.59659 0.75595,0.75596 0.22538,0.11269 0.53057,-0.11269 0.75595,0 0.40374,0.20187 1.86988,1.86987 2.26786,2.26785 0.39798,0.39799 2.06599,1.86412 2.26786,2.26786 0.0994,0.19877 0,2.62851 0,3.02381 0,0.9893 0.17051,2.92719 0,3.77976 -0.15628,0.78137 -0.50397,1.51191 -0.75596,2.26785 -0.25198,0.75597 -0.39959,1.55514 -0.75595,2.26788 -0.40631,0.81261 -1.06114,1.47902 -1.5119,2.26785 -0.55911,0.97843 -0.85691,2.10679 -1.51191,3.02381 -0.62139,0.86993 -1.58345,1.44656 -2.26786,2.26785 -1.9208,0.90422 -1.25364,3.18342 -2.26785,4.5357 -0.33807,0.45077 -1.04309,0.44342 -1.51191,0.75597 -0.59301,0.39534 -0.87443,1.19317 -1.5119,1.51191 -0.22538,0.11268 -0.50397,0 -0.75595,0 -0.25199,0 -0.53058,0.11268 -0.75596,0 -0.31873,-0.15939 -0.43721,-0.59658 -0.75595,-0.75597 -0.22538,-0.11268 -0.53057,0.11269 -0.75595,0 -0.63748,-0.31872 -0.87443,-1.19316 -1.51191,-1.51191 -0.22538,-0.11268 -0.53057,0.11272 -0.75595,0 -0.31874,-0.15936 -0.43721,-0.59658 -0.75595,-0.75594 -0.22538,-0.11268 -0.57777,0.17817 -0.75595,0 -0.17818,-0.17817 0.17818,-0.57777 0,-0.75594 -0.35636,-0.35637 -1.0338,0.15936 -1.51191,0 -0.53454,-0.1782 -0.97736,-0.5778 -1.5119,-0.75597 -0.42651,-0.14216 -1.77112,0 -2.26786,0 -0.34045,0 -2.0378,-0.11501 -2.26786,0 -0.63747,0.31875 -0.87443,1.19317 -1.5119,1.51191 -0.22538,0.11269 -0.57778,-0.17817 -0.75595,0 -0.0916,0.0916 0.0776,1.20153 0,1.51191 -0.19327,0.77306 -0.3996,1.55514 -0.75596,2.26785 -0.15936,0.31874 -0.50397,0.50398 -0.75595,0.75597 -0.50397,0.50395 -0.91889,1.11654 -1.5119,1.51188 -0.82256,0.54837 -2.9602,1.37533 -3.77977,1.51191 -0.74566,0.12427 -1.5195,-0.10689 -2.26785,0 -2.05703,0.29387 -3.98575,1.25418 -6.04762,1.51191 -1.00016,0.12501 -2.01588,0 -3.02381,0 -1.00794,0 -2.01587,0 -3.02381,0 -1.00794,0 -2.02366,0.12501 -3.02381,0 -1.03093,-0.12886 -1.99287,-0.62709 -3.02381,-0.75594 -1.00015,-0.12502 -2.02959,0.1657 -3.02381,0 -1.09838,-0.18307 -1.5766,-0.82066 -2.26786,-1.51191 -0.25198,-0.25199 -0.43721,-0.59659 -0.75595,-0.75597 -0.22538,-0.11269 -0.57777,0.1782 -0.75595,0 -0.17818,-0.17817 0.11269,-0.53057 0,-0.75594 -0.15937,-0.31875 -0.59659,-0.43723 -0.75595,-0.75594 -0.11269,-0.2254 0.11269,-0.5306 0,-0.75597 -0.15937,-0.31874 -0.59659,-0.43722 -0.75596,-0.75594 -0.30238,-0.60476 0.30239,-1.66309 0,-2.26788 -0.15937,-0.31871 -0.50396,-0.50395 -0.75595,-0.75594 0,-0.50398 0.15937,-1.0338 0,-1.51191 -0.22538,-0.67614 -1.11656,-0.91887 -1.5119,-1.51191 -0.6251,-0.93763 -1.00794,-2.01586 -1.51191,-3.02379 -0.50396,-1.00795 -1.09338,-1.97752 -1.5119,-3.02381 -0.61468,-1.5367 -0.62549,-2.45012 -1.511906,-3.77976 -1.427811,-2.14172 -0.0841,0.62981 -1.511906,-1.51191 -1.830642,-2.74597 0.221369,-0.53459 -1.511903,-2.26786 -0.397984,-0.39798 -2.065989,-1.86412 -2.267858,-2.26786 -0.112691,-0.22538 0.178179,-0.57777 0,-0.75595 -0.503968,-0.50397 -1.259922,0.25199 -0.755954,0.75595 0.398423,0.39842 1.043085,0.44341 1.511906,0.75595 0.296508,0.19768 0.503968,0.50397 0.755951,0.75596 0.755955,0.75595 1.626413,1.41259 2.267858,2.26785 0.151191,0.20158 -0.112691,0.53056 0,0.75596 0.159369,0.31874 0.596585,0.43722 0.755952,0.75594 0.112691,0.2254 0,0.50398 0,0.75597 0,0.25199 0,0.50395 0,0.75594 0,0.39531 0.09938,2.82504 0,3.02382 -0.159367,0.31874 -0.437214,0.59658 -0.755952,0.75594 -0.450763,0.2254 -1.061141,-0.22537 -1.511903,0 -0.318739,0.15938 -0.437216,0.59658 -0.755955,0.75597 -0.600887,0.30043 -3.269869,-1.17198 -3.77976,-1.51191 -0.296511,-0.19767 -0.459444,-0.55827 -0.755952,-0.75597 -0.468823,-0.31253 -1.061143,-0.41786 -1.511906,-0.75594 -0.570174,-0.42762 -0.955365,-1.06667 -1.511906,-1.51191 -0.709451,-0.56756 -1.569894,-0.93027 -2.267855,-1.51191 -1.642578,-1.36879 -2.893139,-3.16689 -4.535715,-4.53571 -6.314768,-5.2623 2.089862,2.84582 -4.535714,-3.77976 -1.511904,-1.5119 -2.912306,-3.14422 -4.535715,-4.53571 -0.956602,-0.81995 -2.067206,-1.44791 -3.02381,-2.26786 -1.623409,-1.39149 -2.893136,-3.1669 -4.535712,-4.53571 -1.983663,-1.65305 -2.313564,-1.06888 -3.779763,-3.02381 -0.338072,-0.45077 -0.443405,-1.04309 -0.755952,-1.51191 0.07546,-1.49758 -1.113483,-0.35753 -1.511906,-0.75595 -0.178178,-0.17818 0.178181,-0.57777 0,-0.75595 -0.178178,-0.17818 -0.503968,0 -0.755951,0 0,-0.25199 0.112691,-0.53057 0,-0.75595 -0.15937,-0.31874 -0.755952,-0.3996 -0.755952,-0.75596 0,-0.25198 0.503968,0 0.755952,0 0.251983,0 0.530571,-0.11269 0.755951,0 1.671452,0.83573 0.23459,0.46918 0.755954,1.51191 0.835727,1.67145 0.469176,0.23459 1.511904,0.75595 0.318738,0.15937 0.437216,0.59658 0.755951,0.75595 0.155067,0.0775 2.161249,0.10661 2.267858,0 0.178181,-0.17818 0,-0.50397 0,-0.75595 0,-0.3953 0.09938,-2.82504 0,-3.02381 -0.41252,-0.82504 -1.610188,-1.1173 -2.267858,-1.5119 -0.779065,-0.46744 -1.47902,-1.06115 -2.267855,-1.51191 -0.978431,-0.5591 -2.038717,-0.96463 -3.023811,-1.5119 -3.225671,-1.79204 -3.631671,-2.42038 -6.80357,-3.77976 -0.732414,-0.3139 -1.528006,-0.46002 -2.267858,-0.75596 -0.523152,-0.20926 -0.977365,-0.57777 -1.511905,-0.75595 -0.239052,-0.0797 -0.530569,0.11269 -0.755952,0 -0.318738,-0.15937 -0.437213,-0.59658 -0.755952,-0.75595 -0.450762,-0.22538 -1.155546,0.35636 -1.511906,0 -0.178178,-0.17818 0.178181,-0.57778 0,-0.75595 -0.178178,-0.17819 -0.57777,0.17817 -0.755951,0 -0.178181,-0.17819 0.112691,-0.53058 0,-0.75596 -0.159369,-0.31873 -0.596583,-0.43721 -0.755952,-0.75595 -0.112691,-0.22538 0,-0.50397 0,-0.75595 0,-0.25199 -0.112691,-0.53057 0,-0.75595 0.159369,-0.31874 0.596583,-0.43722 0.755952,-0.75595 0.112691,-0.22539 -0.112692,-0.53058 0,-0.75596 0.100356,-0.20071 2.067144,-2.1675 2.267857,-2.26786 0.22538,-0.11269 0.530572,0.11269 0.755952,0 0.318738,-0.15936 0.41788,-0.64326 0.755952,-0.75595 0.418054,-0.13935 3.774432,0 4.535715,0 0.340449,0 2.037794,0.11503 2.267857,0 0.934133,-0.46706 0.755952,-0.72986 0.755952,-1.5119 0,-0.25199 -0.112689,-0.98134 0,-0.75596 0.712718,1.42544 0.721214,3.15201 1.511905,4.53572 0.625094,1.09392 1.642761,1.92989 2.267858,3.02381 0.790689,1.38371 0.799185,3.11028 1.511903,4.53571 0.406313,0.81263 1.105593,1.45524 1.511906,2.26786 0.617905,1.23581 0.763463,3.78352 2.267858,4.53571 0.22538,0.11269 0.503967,0 0.755951,0 0.251984,0 0.503968,0 0.755952,0 0.251984,0 0.530571,0.11269 0.755954,0 0.27037,-0.13518 2.814225,-2.70943 3.023809,-3.02381 0.312547,-0.46882 0.443405,-1.04308 0.755952,-1.5119 0.197673,-0.29651 0.558279,-0.45944 0.755951,-0.75595 0.31255,-0.46882 0.417881,-1.06114 0.755955,-1.51191 0.42763,-0.57017 1.084273,-0.94173 1.511903,-1.5119 0.676145,-0.90153 0.71506,-2.22697 1.511906,-3.02381 0.39842,-0.39842 1.043083,-0.44341 1.511903,-0.75595 0.296511,-0.19768 0.459444,-0.55828 0.755954,-0.75595 0.468821,-0.31255 1.043083,-0.44341 1.511904,-0.75596 0.593018,-0.39534 1.007938,-1.00793 1.511905,-1.5119 0.251984,-0.25199 0.503968,-0.50397 0.755952,-0.75596 0.251984,-0.25198 0.437216,-0.59658 0.755952,-0.75595 0.225382,-0.11269 0.577773,0.17818 0.755954,0 0.178178,-0.17818 -0.178181,-0.57777 0,-0.75595 0.556154,-0.55616 1.364295,0.60834 1.511903,0.75595 0.590465,0.59047 1.832983,1.61555 2.267858,2.26786 0.312547,0.46882 0.443404,1.04308 0.755951,1.51191 0.395346,0.59301 1.11656,0.91888 1.511906,1.5119 0.312547,0.46882 0.443405,1.04308 0.755952,1.5119 0.395345,0.59302 1.193167,0.87443 1.511906,1.51191 0.112688,0.22538 -0.112692,0.53057 0,0.75595 1.573045,3.14609 -0.05219,-0.80814 1.511903,0.75595 0.178181,0.17818 -0.112689,0.53057 0,0.75596 0.159369,0.31873 0.503968,0.50396 0.755954,0.75595 0.251984,0.25198 0.503968,0.50397 0.755952,0.75595 1.577427,1.57743 0.892021,1.5119 3.023809,1.5119 0.251984,0 0.577773,0.17819 0.755951,0 0.178181,-0.17817 -0.112688,-0.53057 0,-0.75595 0.15937,-0.31874 0.503968,-0.50397 0.755955,-0.75595 0.973097,-0.9731 1.806852,-1.6408 2.267855,-3.02381 0.212153,-0.63646 -0.225034,-3.32969 0,-3.77976 0.159369,-0.31874 0.596585,-0.43721 0.755954,-0.75595 0.03222,-0.0644 0.03222,-2.95937 0,-3.02381 -0.453573,-0.90714 -1.814288,-1.36072 -2.267858,-2.26786 -0.225382,-0.45076 0.35636,-1.15555 0,-1.51191 -0.178181,-0.17817 -0.577773,0.17819 -0.755951,0 -0.178181,-0.17817 0.112688,-0.53057 0,-0.75595 -0.159369,-0.31874 -0.596585,-0.43721 -0.755955,-0.75595 -0.112688,-0.22538 0,-0.50397 0,-0.75595 -0.251983,-0.50397 -0.443404,-1.04309 -0.755951,-1.51191 -0.434875,-0.65231 -1.677392,-1.67739 -2.267858,-2.26785 -0.755951,-0.75596 -1.511903,-1.51191 -2.267857,-2.26786 -0.251984,-0.25199 -0.459444,-0.55828 -0.755952,-0.75595 -0.46882,-0.31255 -1.06114,-0.41788 -1.511906,-0.75595 -0.570174,-0.42764 -0.941728,-1.08428 -1.511903,-1.51191 -0.450763,-0.33807 -0.99401,-0.534 -1.511906,-0.75595 -1.247256,-0.53454 -2.566045,-0.90505 -3.779761,-1.51191 -0.318738,-0.15937 -0.503967,-0.50397 -0.755951,-0.75595 -0.251987,-0.25198 -0.596585,-0.43722 -0.755954,-0.75595 -0.112689,-0.22538 0.178181,-0.57777 0,-0.75596 -0.178179,-0.17817 -0.530569,0.1127 -0.755952,0 -0.200713,-0.10035 -2.167501,-2.06714 -2.267857,-2.26785 -0.112692,-0.22538 0.112691,-0.53057 0,-0.75595 -0.15937,-0.31874 -0.503968,-0.50397 -0.755952,-0.75596 -0.590465,-0.59046 -1.832983,-1.61554 -2.267858,-2.26785 -0.312547,-0.46883 -0.443404,-1.04309 -0.755951,-1.51191 -0.395346,-0.59302 -1.007938,-1.00794 -1.511906,-1.5119 -0.256426,-0.25643 -3.584519,-3.38928 -3.779761,-3.77977 -0.112691,-0.22538 0,-0.50396 0,-0.75595 -0.251984,-0.25198 -0.596585,-0.43721 -0.755954,-0.75595 -0.112689,-0.22538 0.178181,-0.57777 0,-0.75595 -0.178178,-0.17818 -0.503968,0 -0.755952,0 -0.503967,-0.50397 -1.084273,-0.94173 -1.511903,-1.51191 -0.338074,-0.45076 -0.443405,-1.04308 -0.755954,-1.5119 -0.197673,-0.29651 -0.503968,-0.50397 -0.755952,-0.75595 -0.503968,-0.75596 -1.044464,-1.48879 -1.511906,-2.26786 -0.861375,-1.43563 -1.339664,-3.14343 -2.267855,-4.53571 -0.593018,-0.88953 -1.626412,-1.4126 -2.267857,-2.26786 -0.338074,-0.45076 -0.41788,-1.06114 -0.755954,-1.51191 -0.05592,-0.0746 -2.619428,-2.75422 -3.023809,-3.02381 -0.468821,-0.31254 -1.113483,-0.35753 -1.511904,-0.75595 -0.398422,-0.39842 -0.443404,-1.04308 -0.755954,-1.5119 -0.19767,-0.29651 -0.558279,-0.45945 -0.755951,-0.75596 -0.312547,-0.46882 -0.443405,-1.04308 -0.755952,-1.5119 -0.395346,-0.59302 -1.11656,-0.91889 -1.511906,-1.5119 -0.625094,-0.93765 -0.835761,-2.12229 -1.511903,-3.02381 -0.427633,-0.57018 -1.084273,-0.94174 -1.511906,-1.51191 -0.408861,-0.54515 -1.98365,-3.8252 -2.267858,-4.53571 -0.789249,-1.97313 -1.069112,-4.24951 -2.267857,-6.04762 -0.19767,-0.29651 -0.558279,-0.45945 -0.755952,-0.75595 -0.09387,-0.14082 -1.463463,-2.97537 -1.511903,-3.02381 -0.398423,-0.39843 -1.113483,-0.35754 -1.511906,-0.75596 -0.398423,-0.39842 -0.357531,-1.11348 -0.755951,-1.5119 -0.398423,-0.39842 -1.061144,-0.41788 -1.511906,-0.75596 -0.941028,-0.70577 -2.91723,-2.91722 -3.779761,-3.77976 -0.397984,-0.39798 -2.065986,-1.86411 -2.267858,-2.26785 -0.112691,-0.22538 0.178179,-0.57778 0,-0.75596 -0.178181,-0.17818 -0.530571,0.1127 -0.755951,0 -0.866638,-0.43331 -1.051536,-1.5773 -1.511906,-2.26785 -0.197673,-0.29651 -0.643262,-0.41788 -0.755952,-0.75595 -0.101979,-0.30594 0,-5.78637 0,-6.04763 0,-0.32562 -0.102282,-4.33115 0,-4.53571 0.159368,-0.31874 0.503968,-0.50397 0.755952,-0.75595 0,-0.50397 -0.159369,-1.0338 0,-1.51191 0.112691,-0.33807 0.596582,-0.43721 0.755952,-0.75595 0.225382,-0.45076 -0.15937,-1.0338 0,-1.5119 0.356359,-1.06908 1.290902,-1.91879 1.511905,-3.02381 0.148254,-0.74127 -0.148253,-1.52659 0,-2.26786 0.221004,-1.10502 1.155544,-1.95473 1.511904,-3.02381 0.159369,-0.47811 -0.35636,-1.15554 0,-1.5119 0.178181,-0.17818 0.577773,0.17818 0.755954,0 0.178178,-0.17818 0,-0.50397 0,-0.75596 0,-0.71198 -0.143346,-3.34972 0,-3.77976 0.112689,-0.33807 0.596582,-0.43721 0.755952,-0.75595 0.112691,-0.22538 0,-0.503969 0,-0.755953 0,-0.251983 0,-0.503967 0,-0.755951 0,-1.511906 0,-3.023809 0,-4.535715 0,-0.503968 -0.09884,-1.017723 0,-1.511906 0.156273,-0.781367 0.562689,-1.494803 0.755951,-2.267855 0.45007,-1.800275 -1.119073,0.544682 0.755954,-2.267857 0.197671,-0.296511 0.596583,-0.437216 0.755952,-0.755955 0.112691,-0.22538 -0.112691,-0.530569 0,-0.755951 0.159369,-0.318738 0.596583,-0.437214 0.755952,-0.755952 0.225382,-0.450762 -0.22538,-1.061143 0,-1.511906 0.159369,-0.318738 0.596585,-0.437213 0.755951,-0.755951 0.360471,-0.720942 -0.705553,-4.334121 -0.755951,-4.535715 z"
       id="path3713"
       inkscape:connector-curvature="0" />
  </g>
</svg>
