<?xml version="1.0" encoding="UTF-8" standalone="no"?>
<!-- Created with Inkscape (http://www.inkscape.org/) -->

<svg
   xmlns:dc="http://purl.org/dc/elements/1.1/"
   xmlns:cc="http://creativecommons.org/ns#"
   xmlns:rdf="http://www.w3.org/1999/02/22-rdf-syntax-ns#"
   xmlns:svg="http://www.w3.org/2000/svg"
   xmlns="http://www.w3.org/2000/svg"
   xmlns:sodipodi="http://sodipodi.sourceforge.net/DTD/sodipodi-0.dtd"
   xmlns:inkscape="http://www.inkscape.org/namespaces/inkscape"
   width="210mm"
   height="297mm"
   viewBox="0 0 210 297"
   version="1.1"
   id="svg8"
   inkscape:version="0.92.3 (2405546, 2018-03-11)"
   sodipodi:docname="derpdrawing2.svg">
  <defs
     id="defs2" />
  <sodipodi:namedview
     id="base"
     pagecolor="#ffffff"
     bordercolor="#666666"
     borderopacity="1.0"
     inkscape:pageopacity="0.0"
     inkscape:pageshadow="2"
     inkscape:zoom="0.35"
     inkscape:cx="400"
     inkscape:cy="560"
     inkscape:document-units="mm"
     inkscape:current-layer="layer1"
     showgrid="false"
     inkscape:window-width="1366"
     inkscape:window-height="705"
     inkscape:window-x="-8"
     inkscape:window-y="-8"
     inkscape:window-maximized="1" />
  <metadata
     id="metadata5">
    <rdf:RDF>
      <cc:Work
         rdf:about="">
        <dc:format>image/svg+xml</dc:format>
        <dc:type
           rdf:resource="http://purl.org/dc/dcmitype/StillImage" />
        <dc:title></dc:title>
      </cc:Work>
    </rdf:RDF>
  </metadata>
  <g
     inkscape:label="Layer 1"
     inkscape:groupmode="layer"
     id="layer1">
    <path
       style="fill:none;stroke:#000000;stroke-width:0.26458332px;stroke-linecap:butt;stroke-linejoin:miter;stroke-opacity:1"
       d="m 37.797618,52.82738 c 1.007938,-0.755952 1.929892,-1.642761 3.023809,-2.267858 1.532572,-0.875755 5.69323,-1.326845 6.803572,-1.511903 3.035607,-0.505934 7.659124,-1.339892 10.583334,-1.511906 2.263944,-0.133173 4.535715,0 6.803572,0 7.897172,0 4.533358,-0.222615 12.851188,0.755954 2.017646,0.237369 4.084656,0.232495 6.047621,0.755952 1.854256,0.494469 3.500525,1.578957 5.291667,2.267857 1.487461,0.572101 3.023809,1.007936 4.535712,1.511904 10.323937,3.441311 -0.226658,-0.313127 7.559527,3.023809 0.75595,0.251984 1.5119,0.50397 2.26785,0.755954 0.25199,0.251984 0.43722,0.596583 0.75596,0.755952 0.22538,0.112691 0.57777,-0.178181 0.75595,0 0.39842,0.398423 0.44341,1.043082 0.75595,1.511906 0.19767,0.296508 0.55828,0.459441 0.75595,0.755951 0.3988,0.598189 2.0454,3.868322 2.26786,4.535715 0.32855,0.985639 0.50397,2.015871 0.75595,3.023809 0.72309,2.892346 2.00632,6.950387 2.26786,9.827379 0.54207,5.962732 -0.76507,11.9014 -3.02381,17.386906 -0.85814,2.084051 -1.71381,4.213614 -3.02381,6.047619 -1.24278,1.73989 -3.08544,2.96459 -4.53571,4.53571 -4.68203,5.0722 -4.13742,5.76312 -9.827382,9.82739 -0.884208,0.63157 -8.362966,4.80352 -9.827382,5.29166 -1.454105,0.4847 -3.027677,0.48177 -4.535714,0.75595 -5.788536,1.05247 -1.875677,0.75596 -8.315476,0.75596 -1.25992,0 -2.519842,0 -3.779761,0 -1.007938,0 -2.023658,0.12502 -3.023812,0 -1.030933,-0.12887 -1.992873,-0.62709 -3.023809,-0.75596 -2.000305,-0.25004 -4.052006,0.28509 -6.047618,0 -0.788834,-0.11269 -1.481855,-0.62495 -2.267857,-0.75595 -0.745668,-0.12428 -1.511904,0 -2.267858,0 -0.755952,0 -1.511903,0 -2.267857,0 -0.251984,0 -0.577771,-0.17818 -0.755952,0 -0.178178,0.17818 0.04942,0.50886 0,0.75595 -0.203756,1.01878 -0.609021,1.9953 -0.755952,3.02381 -0.305498,2.13849 0.370991,3.93034 0.755952,6.04762 0.274188,1.50804 0.384204,3.04872 0.755952,4.53572 0.498358,1.99343 3.241293,9.23716 3.779763,10.58333 1.102212,2.75553 3.821305,8.98671 5.291666,11.33928 3.232561,5.1721 4.948251,6.46016 9.071428,10.58334 2.996276,2.99628 6.369843,6.60176 9.827381,9.07143 4.541647,3.24403 9.889808,5.06049 15.119049,6.80357 7.577441,2.52581 1.43678,0.74093 9.071427,2.26785 1.018781,0.20376 1.992872,0.62709 3.023812,0.75596 1.00015,0.12502 2.01587,0 3.02381,0 0.75595,0 1.52219,0.12428 2.26785,0 2.85016,-0.47503 1.92366,-0.96183 4.53572,-2.26786 0.71272,-0.35636 1.528,-0.46001 2.26786,-0.75595 0.52315,-0.20926 1.00793,-0.50397 1.5119,-0.75595 0.50397,-0.25199 1.04308,-0.44341 1.51191,-0.75596 2.22573,-1.48382 -1.30265,-1.54678 3.0238,-2.26785 0.29313,-0.0489 5.67862,-0.0922 6.04762,0 1.09326,0.27331 1.95474,1.15554 3.02381,1.5119 0.23906,0.0797 0.53057,-0.11269 0.75596,0 0.31873,0.15937 0.50396,0.50397 0.75595,0.75595 0.25198,0.25199 0.55828,0.45945 0.75595,0.75596 0.54837,0.82255 1.37531,2.96019 1.51191,3.77976 0.12427,0.74566 -0.10691,1.5195 0,2.26785 0.29386,2.05704 1.10439,4.01006 1.5119,6.04762 0.3006,1.503 0.50397,3.02381 0.75595,4.53572 0.25199,1.5119 0.62867,3.00825 0.75595,4.53571 1.01142,12.13695 -1.27391,-3.1078 0.75596,9.07143 0.25198,1.51191 0.45535,3.03272 0.75595,4.53571 0.20376,1.01879 0.62708,1.99288 0.75595,3.02381 0.12502,1.00016 0,2.01588 0,3.02382 0,1.00793 0,2.01587 0,3.0238 0,2.12076 0.23906,2.54571 -0.75595,4.53572 -0.15937,0.31873 -0.50397,0.50397 -0.75595,0.75595 -0.50397,0.50397 -0.91889,1.11656 -1.51191,1.5119 -1.11231,0.74155 -2.55041,1.10213 -3.77976,1.51191 -0.75595,0.25198 -1.48186,0.62495 -2.26786,0.75595 -0.74566,0.12428 -1.5119,0 -2.26785,0 -1.00794,0 -2.01588,0 -3.02381,0 -1.00794,0 -2.01588,0 -3.02381,0 -1.00794,0 -2.02366,0.12502 -3.02381,0 -1.03094,-0.12886 -2.01587,-0.50397 -3.02381,-0.75595 -2.01588,-0.50397 -4.01006,-1.10439 -6.04762,-1.51191 -1.503,-0.30059 -3.05696,-0.35265 -4.53572,-0.75595 -1.30916,-0.35704 -2.48001,-1.12198 -3.779756,-1.5119 -3.602842,-1.08086 -3.754877,-0.0902 -6.803573,-2.26786 -8.658669,-6.18476 5.069118,1.93978 -5.291666,-4.53571 -0.955614,-0.59726 -2.015874,-1.00794 -3.023809,-1.51191 -2.017909,-1.00895 -5.96182,-3.13785 -8.315476,-3.77976 -1.478751,-0.4033 -3.08161,-0.27125 -4.535715,-0.75595 -1.603616,-0.53454 -2.932097,-1.73332 -4.535715,-2.26786 -1.454102,-0.4847 -3.032718,-0.45535 -4.535712,-0.75595 -2.37304,-0.47461 -3.130191,-0.79141 -5.291667,-1.51191 -0.755954,-0.25198 -1.555139,-0.39959 -2.267858,-0.75595 -0.318738,-0.15937 -0.437216,-0.59658 -0.755951,-0.75595 -0.225383,-0.11269 -0.895728,-0.20967 -0.755954,0 0.593018,0.88952 1.557602,1.46882 2.267857,2.26786 2.479752,2.14808 3.947533,5.10942 6.047618,7.55952 0.695749,0.8117 1.646471,1.39791 2.267858,2.26786 5.531141,7.74359 -3.027921,-1.89468 3.779763,6.04762 0.695746,0.8117 1.5576,1.46881 2.267858,2.26785 1.307507,1.47095 2.388131,3.14409 3.77976,4.53572 0.642435,0.64243 1.62542,0.86947 2.267858,1.5119 0.398423,0.39842 0.443405,1.04308 0.755952,1.51191 0.197672,0.2965 0.503967,0.50396 0.755951,0.75595 0.251987,0.25198 0.459444,0.55828 0.755954,0.75595 0.468821,0.31255 1.043083,0.4434 1.511904,0.75595 0.29651,0.19768 0.470865,0.54214 0.755954,0.75596 0.726831,0.54512 1.541023,0.96678 2.267855,1.5119 0.285088,0.21382 0.470865,0.54214 0.755954,0.75595 1.453666,1.09025 3.023809,2.01588 4.535712,3.02381 0.755955,0.50397 1.511906,1.00794 2.267858,1.51191 0.755954,0.50397 1.455235,1.10559 2.267857,1.5119 0.712719,0.35636 1.555139,0.39959 2.267858,0.75595 0.812625,0.40632 1.511906,1.00794 2.267857,1.51191 2.267858,1.5119 4.535714,3.02381 6.803574,4.53571 0.75595,0.50397 1.45523,1.10559 2.26785,1.51191 1.42544,0.71272 3.11028,0.79918 4.53572,1.5119 0.81262,0.40632 1.47902,1.06114 2.26786,1.51191 0.97843,0.5591 2.01587,1.00793 3.02381,1.5119 3.73652,1.86828 1.95473,1.15554 5.29166,2.26785 0.75595,0.25199 1.51191,0.50398 2.26786,0.75597 0.75595,0.25199 1.48185,0.62494 2.26786,0.75594 0.74566,0.12427 1.5119,0 2.26785,0 0.75596,0 1.51191,0 2.26786,0 0.75558,0 3.13302,0.16169 3.77976,0 3.34291,-0.83571 1.17294,-0.46919 3.77976,-1.51191 0.73985,-0.29593 1.51191,-0.50395 2.26786,-0.75594 2.26786,-0.75596 4.53572,-1.51191 6.80357,-2.26786 1.67569,-0.55856 3.79138,-1.26766 5.29167,-2.26786 0.36917,-0.24611 2.7777,-2.65464 3.02381,-3.02381 0.31255,-0.46882 0.54669,-0.98875 0.75595,-1.5119 0.29594,-0.73985 0.39959,-1.55514 0.75595,-2.26786 0.40631,-0.81262 1.00794,-1.5119 1.51191,-2.26786 0.25198,-1.00793 0.39115,-2.051 0.75595,-3.02381 0.39568,-1.05515 1.11622,-1.96865 1.51191,-3.02381 0.7296,-1.94561 0.94105,-4.04965 1.5119,-6.04761 0.43782,-1.53237 1.2499,-2.96372 1.5119,-4.53572 0.12428,-0.74567 0,-1.5119 0,-2.26786 0,-1.5119 0,-3.0238 0,-4.53571 0,-0.72997 0.17742,-4.75943 0,-5.29166 -0.17818,-0.53455 -0.50396,-1.00794 -0.75595,-1.51191 -0.25198,-0.50397 -0.4434,-1.04308 -0.75595,-1.51191 -0.19767,-0.2965 -0.66952,-0.41023 -0.75595,-0.75595 -0.18335,-0.73338 0.12427,-1.52219 0,-2.26786 -0.131,-0.786 -0.62495,-1.48185 -0.75595,-2.26785 -0.12428,-0.74567 0,-1.51191 0,-2.26786 0,-2.26786 0,-4.53571 0,-6.80357 0,-0.75595 0,-1.51191 0,-2.26786 0,-0.75595 -0.10691,-1.5195 0,-2.26786 0.14693,-1.02851 0.60902,-1.99529 0.75595,-3.0238 0.1069,-0.74836 -0.10691,-1.51951 0,-2.26786 0.43845,-3.06917 1.8294,-6.00226 2.26785,-9.07143 0.10691,-0.74835 0,-1.51191 0,-2.26786 0,-1.5119 0,-3.02381 0,-4.53571 0,-0.75595 0,-1.51191 0,-2.26786 0,-0.75595 0.12428,-1.52219 0,-2.26785 -0.52434,-3.1461 -0.68935,-1.31211 -1.5119,-3.77977 -0.75011,-2.25034 1.79,1.55107 -0.75595,-2.26786 -0.39535,-0.59301 -1.19317,-0.87442 -1.51191,-1.5119 -0.11269,-0.22538 0.11269,-0.53057 0,-0.75595 -0.15937,-0.31874 -0.55828,-0.45945 -0.75595,-0.75595 -0.62509,-0.93765 -0.88681,-2.08617 -1.5119,-3.02381 -0.39535,-0.59302 -1.11656,-0.91889 -1.51191,-1.51191 -2.74055,-5.48109 0.79684,1.19527 -1.5119,-2.26785 -2.20111,-3.30166 0.33504,0.24917 -0.75596,-3.02382 -0.11269,-0.33807 -0.50396,-0.50396 -0.75595,-0.75595 -0.25198,-0.50397 -0.61929,-0.96527 -0.75595,-1.5119 -0.24446,-0.97785 0.24446,-2.04597 0,-3.02381 -0.66419,-2.65675 -1.33264,-0.31963 -0.75595,-3.77976 0.131,-0.78601 0.62495,-1.48186 0.75595,-2.26786 0.12428,-0.74567 -0.10691,-1.5195 0,-2.26786 0.3376,-2.36323 0.89649,-3.13771 1.5119,-5.29166 0.28543,-0.99899 0.47053,-2.02483 0.75596,-3.02381 0.21891,-0.76619 0.53704,-1.50168 0.75595,-2.26786 0.85411,-2.98939 1.51376,-6.05506 2.26786,-9.07143 0.25198,-1.00794 0.39115,-2.051 0.75595,-3.02381 0.39568,-1.05516 1.11622,-1.96865 1.5119,-3.02381 0.36481,-0.9728 0.39115,-2.051 0.75596,-3.02381 0.39568,-1.05515 1.06799,-1.98802 1.5119,-3.02381 0.93803,-2.18874 1.3833,-4.59218 2.26786,-6.80357 -0.42068,-0.98388 1.20249,-1.64902 1.5119,-2.26786 0.11503,-0.23006 0,-1.9274 0,-2.267853 0,-1.167571 0.17811,-2.711137 0,-3.77976 -0.131,-0.786003 -0.59968,-1.48649 -0.75595,-2.267858 -0.24709,-1.235456 0.20713,-2.536983 0,-3.779763 -0.131,-0.786 -0.59968,-1.486487 -0.75595,-2.267858 -1.15438,-5.771869 1.98459,4.441881 -0.75596,-3.77976 -0.25198,-0.755952 -0.46001,-1.528006 -0.75595,-2.267858 -0.20926,-0.523152 -0.64545,-0.959392 -0.75595,-1.511903 -0.14826,-0.741273 0,-1.511906 0,-2.267858 -0.25199,-1.007938 -0.47053,-2.024827 -0.75595,-3.023809 -0.43782,-1.532368 -1.24991,-2.963711 -1.51191,-4.535715 -0.12428,-0.745667 0.12428,-1.52219 0,-2.267857 -0.131,-0.786003 -0.50397,-1.511906 -0.75595,-2.267858 -0.25198,-0.755951 -0.50397,-1.511903 -0.75595,-2.267857 -0.25199,-0.755952 -0.59968,-1.486487 -0.75595,-2.267858 -0.0988,-0.49418 0.0988,-1.017722 0,-1.511903 -0.50144,-2.507178 -0.70556,-1.76389 -1.51191,-3.779763 -0.80502,-2.012537 -0.72313,-2.990988 -2.26786,-4.535713 -0.25198,-0.251983 -0.55828,-0.459443 -0.75595,-0.755954 -1.83064,-2.745962 0.22137,-0.534582 -1.5119,-2.267855 -0.25199,-0.251986 -0.3996,-0.755954 -0.75596,-0.755954 -1.25358,0 -0.53006,1.060125 -0.75595,1.511906 -1.77481,3.549618 -1.13638,0.951069 -2.26786,3.779761 -0.88628,2.215724 -1.38156,4.587848 -2.26785,6.803572 -0.20926,0.523153 -0.54669,0.988751 -0.75595,1.511903 -0.59189,1.479704 -0.79919,3.110278 -1.51191,4.535715 -0.40631,0.812626 -1.10559,1.455233 -1.5119,2.267858 -0.35636,0.712719 -0.50397,1.511906 -0.75596,2.267857 -0.25198,0.755952 -0.62495,1.481855 -0.75595,2.267858 -0.12428,0.745664 0.12428,1.52219 0,2.267857 -0.262,1.572004 -1.2499,2.963709 -1.5119,4.535713 -0.12428,0.745667 0.12427,1.52219 0,2.267857 -0.131,0.786003 -0.59968,1.486488 -0.75596,2.267858 -0.0817,0.408368 -0.0943,4.158652 0,4.535715 0.13666,0.546629 0.6193,0.965274 0.75596,1.511903 0,3.441311 -0.35636,0.04323 0.75595,2.267857 0.11269,0.225383 -0.11269,0.530572 0,0.755952 0.6096,1.2192 0.9023,0.292706 1.5119,1.511906 0.11269,0.22538 -0.11269,0.530571 0,0.755952 0.31874,0.637476 1.19317,0.874429 1.51191,1.511905 0.11269,0.22538 -0.11269,0.530572 0,0.755952 0.15937,0.318738 0.59658,0.437216 0.75595,0.755952 0.11269,0.225382 -0.0611,0.511492 0,0.755954 0.19326,0.773052 0.59968,1.486484 0.75595,2.267854 0.0988,0.49418 0,1.00794 0,1.51191 0,0.75595 0,1.5119 0,2.26785 0,0.75596 0.10691,1.51951 0,2.26786 -0.14693,1.02852 -0.50397,2.01588 -0.75595,3.02381 -0.25198,1.00794 -0.39115,2.051 -0.75595,3.02381 -1.03768,2.76714 -1.99592,3.66916 -3.77976,6.04762 -0.75596,1.00794 -1.51191,2.01587 -2.26786,3.02381 -0.75595,1.00794 -1.37696,2.13291 -2.26786,3.02381 -0.8909,0.8909 -2.06721,1.44791 -3.02381,2.26786 -5.09301,4.36543 0.47663,0.4382 -4.53571,3.77976 -0.75595,0.50396 -1.51191,1.00793 -2.26786,1.5119 -0.50397,0.50397 -0.94173,1.08428 -1.5119,1.51191 -0.90153,0.67614 -2.08617,0.88681 -3.02381,1.5119 -0.29651,0.19767 -0.43722,0.59658 -0.75596,0.75595 -0.45076,0.22538 -1.06114,-0.22538 -1.5119,0 -0.31874,0.15937 -0.43721,0.59659 -0.75595,0.75596 -0.26853,0.13426 -2.42653,-0.46355 -1.51191,0.75595 1.35375,1.805 3.53981,3.22182 5.29167,4.53571 1.00794,0.75596 2.13291,1.37696 3.02381,2.26786 0.8909,0.8909 1.37696,2.13291 2.26786,3.02381 0.89089,0.8909 2.01587,1.5119 3.02381,2.26786 1.00793,0.75595 2.01587,1.5119 3.02381,2.26785 2.01587,1.51191 4.13441,2.89583 6.04761,4.53572 0.81171,0.69574 1.44657,1.58345 2.26786,2.26786 2.35261,1.96051 1.91311,1.21881 4.53572,2.26785 0.52315,0.20926 0.97736,0.57777 1.5119,0.75596 0.23905,0.0797 0.75595,-0.25199 0.75595,0 0,0.91645 -0.94411,-0.18817 -1.5119,-0.75596 -0.39531,-0.3953 -2.72566,-2.92442 -3.02381,-3.02381 -2.8024,-0.93413 -0.49502,1.01689 -2.26786,-0.75595 -1.44258,-1.44258 0.0675,-0.28889 -2.26786,-0.75595 -1.56273,-0.31255 -2.97297,-1.19936 -4.53571,-1.51191 -1.23546,-0.24709 -2.53698,0.20713 -3.77976,0 -0.786,-0.131 -1.48649,-0.59968 -2.26786,-0.75595 -0.49418,-0.0988 -1.00794,0 -1.5119,0 -1.51191,0 -3.02381,0 -4.53572,0 -0.75595,0 -1.59171,-0.33807 -2.26786,0 -0.65211,0.32606 0.28935,1.0453 0.75596,1.5119 2.31217,2.31218 -1.39343,-1.23405 2.26785,1.51191 0.57018,0.42763 1.00794,1.00794 1.51191,1.51191 1.25992,1.25992 2.41095,2.63908 3.77976,3.77976 2.62711,2.18925 2.57409,1.28704 6.04762,3.02381 1.31419,0.65709 2.51984,1.5119 3.77976,2.26785 1.25992,0.75595 2.55723,1.45284 3.77976,2.26786 1.04832,0.69888 1.92244,1.65599 3.02381,2.26786 1.18621,0.659 2.56605,0.90505 3.77976,1.5119 3.54963,1.77481 0.95107,1.13638 3.77977,2.26786 0.73985,0.29594 1.4948,0.56269 2.26785,0.75595 0.31037,0.0776 1.42027,-0.0916 1.51191,0 0.35636,0.35636 -0.15937,1.0338 0,1.51191 0.17818,0.53453 0.50397,1.00793 0.75595,1.5119 2.74055,5.48109 -0.79684,-1.19526 1.51191,2.26786 0.83922,1.25884 1.39204,3.36796 2.26785,4.53571 0.42763,0.57018 1.14522,0.90075 1.51191,1.51191 0.40997,0.68328 0.31394,1.60484 0.75595,2.26786 0.59302,0.88952 1.58345,1.44656 2.26786,2.26785 0.92532,1.11038 2.09849,3.42533 3.02381,4.53572 0.6844,0.82128 1.67484,1.37833 2.26785,2.26785 0.44201,0.66302 0.3996,1.55514 0.75596,2.26786 0.31873,0.63747 1.19316,0.87443 1.5119,1.5119 0.34157,0.68316 -0.65109,1.95329 -0.75595,2.26786 -0.0797,0.23905 0.11269,0.53057 0,0.75596 -0.31874,0.63747 -1.19317,0.87442 -1.51191,1.5119 -0.35636,0.71272 -0.50396,1.5119 -0.75595,2.26786 -0.25198,0.75595 -0.50397,1.5119 -0.75595,2.26785 -0.7528,2.25838 -1.61394,4.51487 -2.26786,6.80357 -0.71682,2.50886 -0.60565,3.02603 -1.5119,5.29167 -0.20927,0.52316 -0.57777,0.97737 -0.75596,1.51191 -0.0797,0.23905 0.17819,0.57777 0,0.75595 -0.17818,0.17818 -0.51149,-0.0611 -0.75595,0 -0.77305,0.19326 -1.528,0.46001 -2.26785,0.75595 -1.04631,0.41852 -1.93055,1.23859 -3.02381,1.51191 -0.48892,0.12222 -1.00794,0 -1.51191,0 -0.50397,0.25198 -0.97737,0.57777 -1.5119,0.75595 -0.23906,0.0797 -0.50397,0 -0.75596,0 -0.50396,0 -1.00793,0 -1.5119,0 -1.00794,0 -2.01587,0 -3.02381,0 -0.5258,0 -3.50638,0.13669 -3.77976,0 -0.31874,-0.15937 -0.43722,-0.59659 -0.75595,-0.75595 -0.22539,-0.1127 -0.50397,0 -0.75596,0 -0.25198,0 -0.50397,0 -0.75595,0 -1.5119,0 -3.02381,0 -4.53571,0 -3.77977,0 -7.55953,0 -11.33929,0 -1.25992,0 -2.51984,0 -3.77976,0 -0.75595,0 -1.52659,0.14825 -2.26786,0 -0.55251,-0.11051 -0.96527,-0.6193 -1.5119,-0.75596 -0.48892,-0.12223 -1.0338,0.15937 -1.51191,0 -0.33807,-0.11269 -0.43721,-0.59658 -0.75595,-0.75595 -0.22538,-0.11269 -0.53057,0.11269 -0.75595,0 -1.72066,-1.72066 0.15656,-0.1998 -1.51191,-0.75595 -5.47568,-1.82523 1.19184,0.21794 -2.26785,-1.51191 -0.71272,-0.35636 -1.52801,-0.46001 -2.26786,-0.75595 -3.42569,-1.37027 -0.10469,-0.0698 -2.26786,-1.5119 -0.46882,-0.31255 -1.06114,-0.41788 -1.5119,-0.75595 -0.57018,-0.42764 -1.00794,-1.00794 -1.51191,-1.51191 -0.50397,-0.50397 -1.08427,-0.94173 -1.5119,-1.51191 -0.33808,-0.45076 -0.35753,-1.11348 -0.75596,-1.5119 -0.75395,-0.75395 -3.781754,-1.5139 -4.53571,-2.26786 -0.178179,-0.17818 0.112691,-0.53057 0,-0.75595 -0.318736,-0.63748 -1.084274,-0.94173 -1.511904,-1.5119 -0.545126,-0.72684 -0.966779,-1.54103 -1.511906,-2.26786 -0.474789,-0.63306 -1.958549,-1.64925 -2.267857,-2.26786 -0.112689,-0.22538 0.151191,-0.55436 0,-0.75595 -1.282893,-1.71053 -3.166898,-2.89314 -4.535712,-4.53572 -0.581637,-0.69796 -0.944343,-1.5584 -1.511906,-2.26785 -0.445231,-0.55654 -1.007936,-1.00794 -1.511904,-1.51191 -1.763889,-1.76389 -3.527779,-3.52777 -5.291666,-5.29166 -1.733275,-1.73328 0.318735,0.4781 -1.511906,-2.26786 -0.324215,-0.48632 -4.225248,-4.30286 -4.535715,-4.53572 -0.450763,-0.33807 -1.007935,-0.50396 -1.511903,-0.75595 -3.545687,-1.77284 0.890897,0.35636 -3.779764,-1.5119 -0.523152,-0.20926 -1.007935,-0.50397 -1.511903,-0.75596 -0.503968,-0.25198 -1.043083,-0.4434 -1.511906,-0.75595 -0.593018,-0.39534 -0.874429,-1.19316 -1.511903,-1.5119 -0.225383,-0.11269 -0.516901,0.0797 -0.755954,0 -1.069078,-0.35636 -1.977501,-1.09338 -3.023809,-1.51191 -1.479701,-0.59188 -3.023809,-1.00793 -4.535715,-1.5119 -0.755952,-0.25199 -1.511904,-0.50397 -2.267855,-0.75595 -0.251987,-0.25199 -0.437216,-0.59659 -0.755954,-0.75596 -0.22538,-0.11269 -0.530569,0.11269 -0.755952,0 -0.318738,-0.15936 -0.399592,-0.75595 -0.755952,-0.75595 -0.251983,0 0,0.50397 0,0.75595 0,2.43338 -0.178181,-1.29049 0.755952,1.51191 0.143343,0.43003 0,3.06778 0,3.77976 0,0.25199 -0.07968,0.5169 0,0.75595 0.178181,0.53454 0.577773,0.97737 0.755952,1.51191 0.07968,0.23905 0,0.50397 0,0.75595 0,1.76389 0,3.52778 0,5.29167 0,0.50396 -0.12223,1.02298 0,1.5119 0.136657,0.54663 0.619294,0.96527 0.755954,1.51191 0.122229,0.48892 -0.09884,1.01772 0,1.5119 0.786521,3.93262 0.503968,0.75595 1.511903,3.77976 0.07968,0.23906 -0.112691,0.53057 0,0.75595 0.159369,0.31874 0.643263,0.41788 0.755952,0.75596 0.159369,0.4781 -0.159367,1.03379 0,1.5119 0.112691,0.33807 0.643263,0.41788 0.755954,0.75595 0.159369,0.47811 -0.122232,1.02299 0,1.51191 0.136657,0.54663 0.577771,0.97737 0.755952,1.51191 0.159369,0.4781 -0.225383,1.06114 0,1.5119 0.159369,0.31874 0.558278,0.45944 0.755951,0.75595 0.31255,0.46882 0.443405,1.04308 0.755954,1.51191 0.612971,0.91945 0.898933,0.59244 1.511904,1.5119 0.312547,0.46882 0.443404,1.04308 0.755951,1.51191 0.197673,0.2965 0.558282,0.45944 0.755955,0.75595 0.312547,0.46882 0.443404,1.04308 0.755951,1.5119 0.197673,0.29651 0.503968,0.50397 0.755952,0.75595 2.902426,2.90243 -0.03474,0.16294 3.779763,3.02381 0.285086,0.21382 0.503968,0.50397 0.755952,0.75596 1.671865,1.67186 2.43079,2.7273 4.535715,3.77976 0.712718,0.35636 1.555139,0.39959 2.267857,0.75595 1.625248,0.81263 2.977576,2.08893 4.535713,3.02381 0.483158,0.2899 0.988753,0.54669 1.511905,0.75595 0.739852,0.29594 1.584569,0.34598 2.267858,0.75596 0.61115,0.36669 0.941729,1.08427 1.511903,1.5119 0.450763,0.33807 1.028748,0.46606 1.511906,0.75595 0.779068,0.46744 1.455232,1.1056 2.267858,1.51191 1.425437,0.71272 3.110275,0.79918 4.535712,1.5119 0.812625,0.40631 1.455235,1.10559 2.267857,1.51191 0.712719,0.35636 1.511906,0.50397 2.267858,0.75595 0.755952,0.25198 1.511906,0.50397 2.267862,0.75595 1.5119,0.50397 3.0238,1.00794 4.53571,1.51191 0.75595,0.25198 1.53544,0.44206 2.26786,0.75595 1.03579,0.44391 1.98802,1.06799 3.02381,1.5119 3.27349,1.40293 1.64486,-0.0114 5.29166,2.26786 1.06841,0.66776 1.9554,1.6001 3.02381,2.26786 0.95562,0.59726 2.0682,0.91464 3.02381,1.5119 1.06841,0.66776 1.8969,1.70441 3.02381,2.26786 0.92927,0.46463 2.06886,0.34669 3.02381,0.75595 0.83508,0.35789 1.45523,1.10559 2.26786,1.51191 0.71272,0.35636 1.5119,0.50397 2.26785,0.75595 1.51191,0.50397 3.05602,0.92002 4.53572,1.5119 1.04631,0.41853 1.93055,1.23859 3.02381,1.51191 0.48892,0.12223 1.00793,0 1.5119,0 0.50397,0 1.00794,0 1.51191,0 2.12076,0 2.5457,0.23905 4.53571,-0.75595 2.61978,-1.30989 4.75516,-3.99921 6.80357,-6.04762 1.51191,-1.51191 3.02381,-3.02381 4.53572,-4.53572 0.75595,-0.75595 1.67484,-1.37833 2.26786,-2.26785 0.44201,-0.66302 0.50396,-1.51191 0.75595,-2.26786 0.25198,-0.75595 0.50396,-1.51191 0.75595,-2.26786 0.25199,-0.75595 0.62495,-1.48185 0.75595,-2.26786 0.24856,-1.49133 -0.24855,-3.04438 0,-4.53571 0.131,-0.786 0.53704,-1.50167 0.75595,-2.26786 0.28543,-0.99898 0.50397,-2.01587 0.75596,-3.02381 0.87672,-3.5069 1.55898,-7.03896 2.26785,-10.58333 0.25199,-1.25992 0.47723,-2.52549 0.75596,-3.77976 0.22538,-1.01422 0.62708,-1.99288 0.75595,-3.02381 0.12502,-1.00016 0,-2.01588 0,-3.02381 0,-1.00794 0,-2.01587 0,-3.02381 0,-1.25992 0.20713,-2.53698 0,-3.77976 -0.131,-0.786 -0.50397,-1.51191 -0.75595,-2.26786 -0.25199,-0.75595 -0.46001,-1.52801 -0.75596,-2.26786 -0.20926,-0.52315 -0.54669,-0.98875 -0.75595,-1.5119 -0.29594,-0.73985 -0.46001,-1.52801 -0.75595,-2.26786 -0.20926,-0.52315 -0.54669,-0.98875 -0.75595,-1.5119 -0.29594,-0.73985 -0.3996,-1.55514 -0.75596,-2.26786 -0.15936,-0.31874 -0.55827,-0.45944 -0.75595,-0.75595 -0.31255,-0.46882 -0.35753,-1.11348 -0.75595,-1.51191 -0.39842,-0.39842 -1.11348,-0.35753 -1.5119,-0.75595 -1.28488,-1.28487 -1.86055,-3.13979 -3.02381,-4.53571 -0.68441,-0.82129 -1.57212,-1.45616 -2.26786,-2.26786 -0.81995,-0.9566 -1.44791,-2.06721 -2.26786,-3.02381 -0.69574,-0.8117 -1.5119,-1.51191 -2.26786,-2.26786 -1.71872,-1.71872 -3.10968,-3.3235 -5.29166,-4.53571 -1.18621,-0.65901 -2.56605,-0.90505 -3.77976,-1.51191 -1.31419,-0.65709 -2.44216,-1.65985 -3.77977,-2.26785 -1.45084,-0.65948 -3.02381,-1.00794 -4.53571,-1.51191 -3.02381,-1.00793 -6.07595,-1.93455 -9.07143,-3.02381 -2.55055,-0.92747 -4.96003,-2.24396 -7.55952,-3.02381 -1.23069,-0.3692 -2.52549,-0.47722 -3.77976,-0.75595 -2.02844,-0.45076 -4.04966,-0.94106 -6.04762,-1.5119 -1.53237,-0.43782 -3.02381,-1.00794 -4.53572,-1.51191 -1.5119,-0.50397 -3.056011,-0.92002 -4.535712,-1.5119 -0.523153,-0.20927 -0.988751,-0.54669 -1.511903,-0.75596 -0.739852,-0.29594 -1.528009,-0.46001 -2.267858,-0.75595 -2.627587,-1.05103 -0.396224,-0.46087 -3.023809,-1.5119 -0.739852,-0.29594 -1.584571,-0.34598 -2.267857,-0.75595 -0.611154,-0.3667 -0.955366,-1.06668 -1.511906,-1.51191 -0.709451,-0.56756 -1.569895,-0.93027 -2.267858,-1.5119 -0.821288,-0.68441 -1.511903,-1.51191 -2.267857,-2.26786 -0.755952,-0.75596 -1.583449,-1.44657 -2.267855,-2.26786 -0.581636,-0.69796 -0.930272,-1.5699 -1.511906,-2.26786 -0.684408,-0.82128 -1.583449,-1.44657 -2.267857,-2.26785 -0.581634,-0.69796 -0.983825,-1.52855 -1.511904,-2.26786 -0.732316,-1.02524 -1.642763,-1.92989 -2.267857,-3.02381 -0.395346,-0.69185 -0.503968,-1.5119 -0.755954,-2.26786 -0.251984,-0.75595 -0.503968,-1.5119 -0.755952,-2.26786 -0.251984,-0.75595 -0.460013,-1.528 -0.755952,-2.26785 -0.209261,-0.52316 -0.619294,-0.96528 -0.755951,-1.51191 -0.148662,-0.59464 0,-3.74958 0,-4.53571 0,-0.75595 0,-1.5119 0,-2.26786 0,-0.75595 -0.12428,-1.52219 0,-2.26785 0.130998,-0.78601 0.53704,-1.50168 0.755951,-2.26786 0.21041,-0.73643 0.994043,-4.38541 1.511904,-5.29167 0.625096,-1.09391 1.511905,-2.01587 2.267857,-3.02381 0.755954,-1.00793 1.37696,-2.132909 2.267858,-3.023808 2.460357,-2.460358 6.037577,-4.530694 9.071429,-6.047619 2.001153,-1.000577 9.406435,-3.967228 11.339285,-4.535715 5.572944,-1.639099 6.781624,-1.382254 12.095234,-2.267854 1.26739,-0.211233 2.52549,-0.477227 3.77977,-0.755955 1.01421,-0.22538 1.99287,-0.627086 3.02381,-0.755951 1.50023,-0.187529 3.0238,0 4.53571,0 0.50397,0 1.0338,-0.159369 1.5119,0 0.33808,0.112691 0.50397,0.503967 0.75596,0.755951 0.25198,0.251984 0.50397,0.503968 0.75595,0.755955 2.95309,2.953088 0.30519,-0.145574 2.26786,3.77976 0.40631,0.812626 1.10559,1.455232 1.5119,2.267858 0.35636,0.712718 0.36061,1.576001 0.75595,2.267857 0.6251,1.093917 1.56898,1.975491 2.26786,3.023809 0.81502,1.222537 1.51191,2.519842 2.26786,3.779762 0.75595,1.25992 1.65985,2.44215 2.26785,3.77976 0.65948,1.45084 0.85244,3.08487 1.51191,4.53571 0.007,0.0147 4.50906,7.51156 4.53571,7.55953 1.09455,1.97019 1.82929,4.13639 3.02381,6.04762 0.66776,1.06841 1.64276,1.92989 2.26786,3.02381 0.39534,0.69185 0.44206,1.53544 0.75595,2.26786 0.44391,1.03579 1.00794,2.01587 1.51191,3.02381 0.50396,1.00793 0.91464,2.06819 1.5119,3.0238 6.51145,10.41831 -2.71389,-5.77659 5.29167,6.80357 1.72176,3.44352 2.44402,5.17794 4.53571,8.31548 1.39776,2.09664 3.2002,3.9108 4.53572,6.04762 1.84846,2.95755 0.94304,2.79475 3.02381,5.29167 0.6844,0.82129 1.67484,1.37833 2.26785,2.26786 0.44201,0.66301 0.3996,1.55513 0.75596,2.26785 0.81262,1.62525 2.21118,2.91047 3.02381,4.53571 0.35636,0.71272 0.39959,1.55514 0.75595,2.26786 0.40631,0.81263 1.10559,1.45523 1.5119,2.26786 0.35636,0.71272 0.44206,1.53544 0.75596,2.26786 0.44391,1.03579 1.00793,2.01587 1.5119,3.02381 0.50397,1.00793 1.00794,2.01587 1.5119,3.02381 0.50397,1.00793 1.11623,1.96865 1.51191,3.0238 4.30089,11.46906 -2.14322,-3.84613 1.5119,5.29167 0.20927,0.52316 0.57778,0.97737 0.75596,1.51191 0.0797,0.23905 -0.11269,0.53057 0,0.75595 0.15936,0.31874 0.59658,0.43721 0.75595,0.75595 0.11269,0.22538 0,0.50397 0,0.75595 0,0.75596 0.18335,1.53448 0,2.26786 -0.13666,0.54663 -0.50397,1.00794 -0.75595,1.51191 -0.50397,1.00793 -1.09338,1.9775 -1.51191,3.0238 -0.88455,2.21139 -1.32982,4.61484 -2.26786,6.80358 -0.94914,2.21467 -1.6681,3.39367 -3.0238,5.29166 -0.73232,1.02524 -1.60011,1.9554 -2.26786,3.02381 -0.59726,0.95562 -0.9528,2.04538 -1.51191,3.02381 -0.90152,1.57767 -2.12228,2.95805 -3.02381,4.53572 -6.29218,11.01132 1.97264,-3.18933 -2.26785,5.29166 -0.40631,0.81263 -1.1056,1.45524 -1.51191,2.26786 -0.35636,0.71272 -0.46001,1.52801 -0.75595,2.26786 -0.28421,0.71051 -1.859,3.99056 -2.26786,4.53571 -0.42763,0.57018 -1.08427,0.94173 -1.5119,1.51191 -0.33807,0.45076 -0.35753,1.11348 -0.75595,1.5119 -0.64244,0.64244 -1.51191,1.00794 -2.26786,1.51191 -0.75595,0.50396 -1.51191,1.00793 -2.26786,1.5119 -0.75595,0.50397 -1.45523,1.10559 -2.26786,1.5119 -1.42543,0.71272 -3.05601,0.92003 -4.53571,1.51191 -2.01587,0.80635 -1.27258,1.01047 -3.77976,1.5119 -0.98836,0.19768 -2.01588,0 -3.02381,0 -0.75595,0 -1.51191,0 -2.26786,0 -0.75595,0 -1.52219,0.12428 -2.26786,0 -1.572,-0.262 -3.00334,-1.07408 -4.53571,-1.5119 -0.99898,-0.28542 -2.01587,-0.50397 -3.02381,-0.75595 -2.01587,-0.50397 -4.01919,-1.06114 -6.04762,-1.51191 -1.25427,-0.27872 -2.54908,-0.38674 -3.77976,-0.75595 -1.29975,-0.38992 -2.49242,-1.08279 -3.77976,-1.5119 -0.98564,-0.32855 -2.05101,-0.39115 -3.02381,-0.75596 -1.05516,-0.39568 -1.99403,-1.05422 -3.02381,-1.5119 -2.48004,-1.10224 -5.07949,-1.92157 -7.55953,-3.02381 -1.02977,-0.45768 -1.96865,-1.11622 -3.0238,-1.51191 -0.972811,-0.3648 -2.051007,-0.39115 -3.023814,-0.75595 -1.055155,-0.39568 -1.988018,-1.06799 -3.023809,-1.5119 -0.732417,-0.3139 -1.511906,-0.50397 -2.267857,-0.75596 -0.755952,-0.25198 -1.494806,-0.56269 -2.267858,-0.75595 -0.244462,-0.0611 -0.577773,0.17818 -0.755951,0 -0.178181,-0.17818 0.112688,-0.98133 0,-0.75595 -0.35636,0.71272 -0.599679,1.48649 -0.755955,2.26786 -0.09884,0.49418 0,1.00793 0,1.5119 0,1.25992 0,2.51984 0,3.77976 0,0.50397 0,1.00794 0,1.51191 0,0.25198 -0.112688,0.53057 0,0.75595 0.159369,0.31874 0.558282,0.45944 0.755955,0.75595 0.625094,0.93765 0.886809,2.08617 1.511903,3.02381 2.126226,3.18934 -1.297348,-4.1066 2.267857,3.02381 0.35636,0.71272 0.313944,1.60485 0.755952,2.26786 0.593018,0.88953 1.511906,1.5119 2.267857,2.26786 1.76389,1.76388 3.52778,3.52777 5.29167,5.29166 1.00794,1.00794 1.95842,2.0768 3.02381,3.02381 2.41187,2.14388 5.14765,3.90374 7.55952,6.04763 3.18956,2.83514 5.86,6.26142 9.07143,9.07142 0.94819,0.82966 2.06721,1.44791 3.02381,2.26785 0.0961,0.0824 4.49401,4.50792 4.53571,4.53573 0.66302,0.44201 1.52801,0.46 2.26786,0.75594 0.52315,0.20926 1.00794,0.50398 1.51191,0.75597 0.50396,0.25196 1.04308,0.44339 1.5119,0.75594 0.29651,0.19767 0.43721,0.59658 0.75595,0.75594 1.42544,0.71273 3.05601,0.92004 4.53572,1.51191 1.0463,0.41852 2.01587,1.00795 3.02381,1.51191 0.50396,0.25199 1.04308,0.44341 1.5119,0.75596 0.29651,0.19767 0.45944,0.55827 0.75595,0.75595 0.93765,0.6251 2.08617,0.8868 3.02381,1.5119 0.59302,0.39534 0.87443,1.19317 1.51191,1.51191 2.4587,1.22934 1.79817,0.19085 3.77976,1.51191 0.29651,0.19767 0.43721,0.59658 0.75595,0.75594 0.22538,0.11269 0.53057,-0.11268 0.75595,0 2.30533,1.15266 -1.38259,0.59928 2.26786,1.51191 0.48892,0.12224 1.00794,0 1.51191,0 0.50396,0 1.00793,0 1.5119,0 0.75595,0 1.51191,0 2.26786,0 0.50396,0 1.01772,0.0988 1.5119,0 1.08174,-0.21635 2.77183,-0.90715 3.77976,-1.51191 0.77907,-0.46744 1.51191,-1.00793 2.26786,-1.51191 0.75595,-0.50395 1.55841,-0.94435 2.26786,-1.51191 0.55654,-0.44521 1.00793,-1.00793 1.5119,-1.5119 0.75596,-0.75594 1.64647,-1.3979 2.26786,-2.26785 0.655,-0.917 0.88681,-2.08616 1.51191,-3.02382 2.13933,-3.209 1.21499,0.43172 2.26785,-3.77976 0.16,-0.63997 0,-2.23893 0,-3.02379 0,-1.25177 0.17067,-4.26768 0,-5.29167 -0.131,-0.78602 -0.53704,-1.50169 -0.75595,-2.26787 -0.28542,-0.99899 -0.47053,-2.02483 -0.75595,-3.02379 -0.21891,-0.76621 -0.53705,-1.5017 -0.75595,-2.26788 -0.92181,-3.2263 -0.73248,-3.29614 -1.51191,-6.80356 -0.22538,-1.01422 -0.53057,-2.0096 -0.75595,-3.02381 -0.16559,-0.74515 -1.08646,-5.81086 -1.51191,-6.80357 -0.35789,-0.83509 -1.10559,-1.45524 -1.5119,-2.26786 -0.35636,-0.71272 -0.50397,-1.51191 -0.75595,-2.26786 -0.54087,-1.62261 -0.67767,-2.38937 -1.51191,-3.77976 -0.93488,-1.55813 -1.93356,-3.08205 -3.02381,-4.53571 -0.42763,-0.57018 -1.19317,-0.87443 -1.5119,-1.51191 -0.11269,-0.22538 0.11269,-0.53057 0,-0.75595 -0.31874,-0.63748 -1.11656,-0.91889 -1.51191,-1.51191 -0.31255,-0.46882 -0.50396,-1.00793 -0.75595,-1.5119 -0.50397,-0.50397 -1.08427,-0.94173 -1.5119,-1.5119 -0.33808,-0.45077 -0.41788,-1.06115 -0.75596,-1.51191 -0.42763,-0.57018 -1.00793,-1.00794 -1.5119,-1.5119 -1.51191,-1.51191 -2.91231,-3.14423 -4.53572,-4.53572 -0.9566,-0.81994 -2.01587,-1.5119 -3.02381,-2.26786 -1.00793,-1.00793 -1.95105,-2.08515 -3.02381,-3.02381 -0.94818,-0.82966 -2.01587,-1.5119 -3.0238,-2.26785 -1.00794,-0.75595 -1.99857,-1.53554 -3.02381,-2.26786 -0.73932,-0.52808 -1.5699,-0.93027 -2.26786,-1.5119 -1.36881,-1.14068 -2.35433,-2.71069 -3.77976,-3.77976 -1.32107,-0.9908 -2.2552,-0.74963 -3.77976,-1.51191 -0.31874,-0.15937 -0.50397,-0.50397 -0.75596,-0.75595 -0.50396,-0.25199 -0.98875,-0.54669 -1.5119,-0.75596 -0.73985,-0.29594 -1.55514,-0.39959 -2.26786,-0.75595 -0.31874,-0.15937 -0.41788,-0.64326 -0.75595,-0.75595 -0.47811,-0.15937 -1.01772,0.0988 -1.51191,0 -2.50718,-0.50144 -1.76388,-0.70556 -3.77976,-1.51191 -0.73985,-0.29593 -1.5119,-0.50396 -2.26786,-0.75595 -1.5119,-0.50396 -3.00334,-1.07408 -4.53571,-1.5119 -0.99898,-0.28542 -2.02483,-0.47053 -3.02381,-0.75595 -1.53237,-0.43782 -3.02381,-1.00794 -4.53571,-1.51191 -0.75596,-0.25198 -1.51191,-0.50397 -2.26786,-0.75595 -0.75595,-0.25199 -1.55514,-0.39959 -2.26786,-0.75595 -0.31874,-0.15937 -0.50396,-0.50397 -0.75595,-0.75596 -0.25199,-0.25198 -0.59658,-0.43721 -0.75595,-0.75595 -0.11269,-0.22538 0.17818,-0.57777 0,-0.75595 -0.17818,-0.17818 -0.53057,0.11269 -0.75595,0 -1.157805,-0.5789 -0.591171,-1.34712 -1.51191,-2.26786 -5.039681,-5.03968 1.76389,3.77976 -2.267855,-2.26786 -0.395346,-0.59301 -1.007938,-1.00793 -1.511906,-1.5119 -0.755952,-0.75595 -1.511906,-1.51191 -2.267858,-2.26786 -0.251984,-0.25198 -0.503967,-0.50396 -0.755951,-0.75595 -0.251984,-0.25198 -0.596585,-0.43721 -0.755952,-0.75595 -0.112691,-0.22538 0.112689,-0.53057 0,-0.75595 -0.159369,-0.31874 -0.596585,-0.43722 -0.755954,-0.75596 -0.35636,-0.71271 -0.503968,-1.5119 -0.755952,-2.26785 -0.251984,-0.75596 -0.503968,-1.51191 -0.755951,-2.26786 -0.503968,-1.5119 -0.920025,-3.05601 -1.511906,-4.53572 -0.209262,-0.52315 -0.577774,-0.97736 -0.755952,-1.5119 -0.136377,-0.40913 0,-2.76628 0,-3.02381 0,-2.26786 0,-4.53571 0,-6.80357 0,-2.51984 0,-5.03968 0,-7.55952 0,-0.43558 0.137763,-3.50424 0,-3.77977 -0.159369,-0.31873 -0.596585,-0.43721 -0.755952,-0.75595 -0.112691,-0.22538 0.178179,-0.57777 0,-0.75595 -0.178181,-0.17818 -0.577773,0.17818 -0.755954,0 -0.178178,-0.17818 0,-0.50397 0,-0.75595 0,-0.25199 0,-0.50397 0,-0.75595 0,-0.39531 -0.09938,-2.82504 0,-3.02381 0.318738,-0.63748 1.193168,-0.87444 1.511906,-1.51191 0.521364,-1.04273 -0.915501,-0.67618 0.755952,-1.51191 0.225382,-0.11268 0.530571,0.1127 0.755951,0 0.318739,-0.15936 0.437216,-0.59658 0.755955,-0.75595 0.22538,-0.11269 0.530569,0.11269 0.755951,0 0.318738,-0.15937 0.459444,-0.55828 0.755952,-0.75595 0.468823,-0.31255 1.007938,-0.50397 1.511906,-0.75595 1.950106,-0.97506 3.980788,-1.57891 6.047618,-2.26786 1.229349,-0.40978 2.667452,-0.77036 3.779762,-1.5119 0.29651,-0.19768 0.43721,-0.59659 0.75595,-0.75596 0.22538,-0.11269 0.50397,0 0.75595,0 0.25199,0 0.50397,0 0.75596,0 0.75595,0 1.59171,-0.33807 2.26785,0 0.22539,0.1127 -0.17817,0.57778 0,0.75596 0.17818,0.17818 0.53058,-0.1127 0.75596,0 0.40374,0.20187 1.86987,1.86987 2.26785,2.26785 2.31218,2.31218 -1.39342,-1.23406 2.26786,1.51191 0.57017,0.42763 0.90076,1.14521 1.51191,1.5119 0.68328,0.40997 1.55513,0.3996 2.26785,0.75595 0.31874,0.15937 0.47087,0.54214 0.75596,0.75596 0.72683,0.54512 1.5119,1.00793 2.26785,1.5119 2.34462,1.56308 2.1911,1.46073 4.53572,3.02381 0.75595,0.50397 1.5584,0.94435 2.26785,1.51191 0.55654,0.44523 0.95537,1.06667 1.51191,1.5119 0.70945,0.56756 1.5119,1.00794 2.26786,1.51191 1.5119,1.00793 3.02381,2.01587 4.53571,3.02381 1.5119,1.00793 2.97758,2.08892 4.53571,3.0238 3.30266,1.9816 -0.5472,-0.65157 3.77977,1.51191 0.40374,0.20187 1.86987,1.86987 2.26785,2.26786 0.59047,0.59046 1.83298,1.61554 2.26786,2.26786 0.6251,0.93764 0.93212,2.05749 1.5119,3.0238 0.46745,0.77907 1.00794,1.51191 1.51191,2.26786 0.50397,0.75595 0.94434,1.55841 1.5119,2.26786 2.84848,3.56059 0.23171,-0.87375 3.02381,3.77976 0.2899,0.48316 0.5467,0.98875 0.75596,1.51191 0.29594,0.73984 0.27784,1.63038 0.75595,2.26785 0.33807,0.45076 1.11348,0.35753 1.5119,0.75595 0.39842,0.39843 0.44341,1.04309 0.75596,1.51191 0.24434,0.36651 3.41324,3.53542 3.77976,3.77976 0.46882,0.31255 1.04308,0.44341 1.5119,0.75595 0.29651,0.19768 0.45945,0.55828 0.75595,0.75595 1.11232,0.74155 2.55042,1.10213 3.77977,1.51191 1.5119,0.50397 3.00334,1.07408 4.53571,1.5119 0.99898,0.28543 2.02483,0.47053 3.02381,0.75596 0.76619,0.21891 1.48186,0.62495 2.26786,0.75595 0.74566,0.12428 1.53447,-0.18335 2.26785,0 0.34572,0.0864 0.41788,0.64326 0.75596,0.75595 0.4781,0.15937 1.00793,0 1.5119,0 0.25199,0 0.57778,0.17818 0.75595,0 0.17818,-0.17818 -0.0797,-0.5169 0,-0.75595 0.17818,-0.53454 0.57778,-0.97737 0.75596,-1.51191 0.23905,-0.71715 -0.14826,-1.52658 0,-2.26785 0.15627,-0.78137 0.66795,-1.47589 0.75595,-2.26786 0.16696,-1.50266 0,-3.02381 0,-4.53571 0,-0.75596 -0.12428,-1.52219 0,-2.26786 0.131,-0.786 0.50397,-1.5119 0.75595,-2.26786 0.25198,-1.00793 0.60902,-1.99529 0.75595,-3.02381 0.21382,-1.49671 -0.24855,-3.04438 0,-4.53571 0.131,-0.786 0.62496,-1.48186 0.75596,-2.26786 0.12427,-0.74566 0,-1.5119 0,-2.26785 0,-0.75596 0.12427,-1.5222 0,-2.26786 -0.131,-0.78601 -0.62496,-1.48186 -0.75596,-2.26786 -0.12427,-0.74567 0.12428,-1.52219 0,-2.26786 -0.52435,-3.14609 -0.68935,-1.31211 -1.5119,-3.77976 -0.0797,-0.23905 0.11269,-0.53057 0,-0.75595 -0.31874,-0.63748 -1.19317,-0.87443 -1.51191,-1.51191 -0.22538,-0.45076 0.22539,-1.06114 0,-1.5119 -0.15937,-0.31874 -0.59658,-0.43721 -0.75595,-0.75595 -0.22538,-0.45077 0.12223,-1.02299 0,-1.51191 -0.62163,-2.48651 -2.08804,-4.46416 -3.02381,-6.80357 -0.29594,-0.73985 -0.34598,-1.58457 -0.75595,-2.26786 -0.36669,-0.61115 -1.14521,-0.90075 -1.5119,-1.5119 -1.84451,-3.07417 0.59961,-1.66824 -2.26786,-4.53571 -0.64244,-0.64244 -1.62542,-0.86947 -2.26786,-1.51191 -0.39842,-0.39842 -0.30519,-1.17383 -0.75595,-1.5119 -0.63748,-0.47811 -1.63038,-0.27785 -2.26786,-0.75596 -0.45076,-0.33807 -0.35753,-1.11348 -0.75595,-1.5119 -0.39842,-0.39842 -1.04308,-0.44341 -1.51191,-0.75596 -0.2965,-0.19767 -0.45944,-0.55827 -0.75595,-0.75595 -0.93764,-0.62509 -2.01587,-1.00793 -3.02381,-1.5119 -1.00794,-0.50397 -1.9775,-1.09338 -3.02381,-1.51191 -4.43964,-1.77585 -0.091,-0.0152 -4.53571,-0.75595 -0.786,-0.131 -1.47902,-0.64326 -2.26786,-0.75595 -1.74616,-0.24945 -3.55178,0.28998 -5.29167,0 -0.786,-0.131 -1.48185,-0.62495 -2.26785,-0.75595 -0.74567,-0.12428 -1.52219,0.12427 -2.26786,0 -0.786,-0.131 -1.48185,-0.62495 -2.26786,-0.75596 -0.74566,-0.12427 -1.52219,0.12428 -2.26785,0 -1.57201,-0.262 -3.00335,-1.07408 -4.53572,-1.5119 -6.64451,-1.89843 0.14588,0.30061 -5.29166,-1.5119 -0.75596,-0.25199 -1.51191,-0.50397 -2.26786,-0.75596 -0.75595,-0.25198 -1.48186,-0.62495 -2.26786,-0.75595 -0.74567,-0.12428 -1.52219,0.12428 -2.26786,0 -0.786,-0.131 -1.48185,-0.62495 -2.26785,-0.75595 -0.74567,-0.12428 -1.52219,0.12428 -2.26786,0 -0.786,-0.131 -1.5119,-0.50397 -2.26786,-0.75595 -0.75595,-0.25199 -1.5119,-0.50397 -2.26785,-0.75596 -1.51191,-0.50397 -3.00335,-1.07408 -4.53572,-1.5119 -0.99898,-0.28543 -2.02483,-0.47053 -3.02381,-0.75596 -0.76618,-0.2189 -1.50167,-0.53704 -2.26786,-0.75595 -0.99898,-0.28542 -2.02482,-0.47053 -3.0238,-0.75595 -0.766188,-0.21891 -1.481859,-0.62495 -2.267862,-0.75595 -0.745667,-0.12428 -1.52219,0.12428 -2.267858,0 -0.786,-0.131 -1.481854,-0.62495 -2.267857,-0.75595 -0.745665,-0.12428 -1.526585,0.14825 -2.267855,0 -3.042044,-0.60841 -0.347326,-0.55164 -2.267857,-1.51191 -2.224625,-1.11231 0.995272,1.75123 -1.511906,-0.75595 -0.251984,-0.25199 -0.503968,-0.50397 -0.755952,-0.75595 -0.251984,-0.25199 -0.425082,-0.62361 -0.755952,-0.75596 -0.964649,-0.38586 -2.024827,-0.47052 -3.023811,-0.75595 -1.532369,-0.43782 -3.023809,-1.00793 -4.535713,-1.511903 -0.755954,-0.251983 -1.528005,-0.460012 -2.267857,-0.755951 -1.290288,0.267467 -1.455232,-1.105593 -2.267858,-1.511906 -0.225382,-0.112691 -0.530571,0.112691 -0.755951,0 -0.637477,-0.318738 -0.87443,-1.193168 -1.511906,-1.511903 -0.22538,-0.112692 -0.577773,0.178178 -0.755952,0 -0.178181,-0.178181 0.209664,-0.616178 0,-0.755954 C 70.396509,94.718705 69.504384,94.76112 68.791666,94.404761 67.166418,93.592136 65.814087,92.315833 64.255951,91.380952 63.772795,91.091056 63.142468,91.02342 62.744048,90.625 c -0.178181,-0.178181 0.178178,-0.577773 0,-0.755954 -0.178181,-0.178178 -0.577774,0.178181 -0.755955,0 -0.39842,-0.39842 -0.357528,-1.113483 -0.755951,-1.511903 -0.398423,-0.398423 -1.007936,-0.503971 -1.511904,-0.755955 -0.50397,-0.251983 -1.007938,-0.503967 -1.511905,-0.755951 -1.007936,-0.503968 -2.086166,-0.886809 -3.02381,-1.511903 -0.29651,-0.197673 -0.459443,-0.558282 -0.755951,-0.755955 -0.468823,-0.312547 -1.007938,-0.503967 -1.511906,-0.755951 -0.503968,-0.251984 -0.977366,-0.577774 -1.511906,-0.755952 -0.239051,-0.07968 -0.57777,0.178178 -0.755951,0 -0.178179,-0.178181 0.178181,-0.577773 0,-0.755954 -0.178179,-0.178179 -0.530572,0.112691 -0.755952,0 -0.637477,-0.318736 -0.874429,-1.193165 -1.511906,-1.511903 -0.22538,-0.112692 -0.530569,0.112691 -0.755952,0 -0.743878,-0.371941 -2.27993,-2.651872 -3.023809,-3.02381 -0.225382,-0.112691 -0.503967,0 -0.755951,0 -0.503971,-0.251983 -1.043086,-0.443404 -1.511906,-0.755954 -0.688155,-0.458769 -1.597827,-1.932842 -2.267858,-2.267855 -0.22538,-0.112691 -0.516898,0.07968 -0.755951,0 -0.534541,-0.178181 -0.977366,-0.577773 -1.511906,-0.755954 -0.239054,-0.07968 -0.577771,0.178181 -0.755952,0 -0.178181,-0.178178 0.112692,-0.530571 0,-0.755952 -0.318738,-0.637476 -1.193167,-0.874429 -1.511906,-1.511905 -0.112688,-0.22538 0,-0.503968 0,-0.755952 0,-0.251984 0,-0.503968 0,-0.755952 0,-1.259922 0,-2.519841 0,-3.779763 0,-0.755952 0,-1.511903 0,-2.267855 0,-0.251986 -0.251984,-0.755954 0,-0.755954 0.251987,0 0,1.007938 0,0.755954 0,-0.755954 0,-1.511906 0,-2.267857 0,-0.251984 -0.251984,-0.755955 0,-0.755955 0.251987,0 0,1.007939 0,0.755955 0,-0.503971 -0.122229,-1.022985 0,-1.511906 0.13666,-0.546629 0.577774,-0.977366 0.755955,-1.511903 0.226573,-0.679723 -0.250537,-2.397472 0,-3.023812 0.418523,-1.046306 1.007935,-2.015871 1.511903,-3.023809 z"
       id="path3715"
       inkscape:connector-curvature="0" />
  </g>
</svg>
